output_tb.txt
VCD info: dumpfile tb_FPU.vcd opened for output.
          0 A = 00000000000000000000000000000000, B = 00000000000000000000000000000000, Sel = 00, Y = xxxxxxxxxxxxxxxxxxxxxxxxxxxxxxxx, Overflow = x, Error = x
          1 A = 00000000000000000000000000000000, B = 00000000000000000000000000000000, Sel = 00, Y = 00000000000000000000000000000000, Overflow = x, Error = x
          2 A = 00000000000000000000000000000000, B = 00000000000000000000000000000000, Sel = 00, Y = xxxxxxxxxxxxxxxxxxxxxxxxxxxxxxxx, Overflow = x, Error = x
          3 A = 01000011011100000000000000000000, B = 01000010111100000000000000000000, Sel = 00, Y = xxxxxxxxxxxxxxxxxxxxxxxxxxxxxxxx, Overflow = x, Error = x
          4 A = 01000011011100000000000000000000, B = 01000010111100000000000000000000, Sel = 00, Y = xxxxxxxxxxxxxxxxxxxxxxxxxxxxxxxx, Overflow = x, Error = x
          5 A = 01000011011100000000000000000000, B = 01000010111100000000000000000000, Sel = 00, Y = xxxxxxxxxxxxxxxxxxxxxxxxxxxxxxxx, Overflow = 0, Error = 0
          6 A = 01000011011100000000000000000000, B = 01000010111100000000000000000000, Sel = 00, Y = 00000000000000000000000000000000, Overflow = 0, Error = 0
          7 A = 01000011011100000000000000000000, B = 01000010111100000000000000000000, Sel = 00, Y = 01000011101101000000000000000000, Overflow = 0, Error = 0
          8 A = 01000011010100000000000000000000, B = 01000010101100000000000000000000, Sel = 01, Y = 01000011101101000000000000000000, Overflow = 0, Error = 0
          9 A = 01000011010100000000000000000000, B = 01000010101100000000000000000000, Sel = 01, Y = 00000000000000000000000000000000, Overflow = 0, Error = 0
         10 A = 01000011010100000000000000000000, B = 01000010101100000000000000000000, Sel = 01, Y = 00000000000000000000000000000000, Overflow = 0, Error = 0
         11 A = 01000011010100000000000000000000, B = 01000010101100000000000000000000, Sel = 01, Y = 01000010111100000000000000000000, Overflow = 0, Error = 0
         12 A = 11000011011100000000000000000000, B = 11000010111100000000000000000000, Sel = 10, Y = 01000010111100000000000000000000, Overflow = 0, Error = 0
         13 A = 11000011011100000000000000000000, B = 11000010111100000000000000000000, Sel = 10, Y = 00000000000000000000000000000000, Overflow = 0, Error = 0
         14 A = 11000011011100000000000000000000, B = 11000010111100000000000000000000, Sel = 10, Y = 00000000000000000000000000000000, Overflow = 0, Error = 0
         15 A = 11000011011100000000000000000000, B = 11000010111100000000000000000000, Sel = 10, Y = 01000110111000010000000000000000, Overflow = 0, Error = 0
         16 A = 01000011011100000000000000000000, B = 11000010111100000000000000000000, Sel = 11, Y = 01000110111000010000000000000000, Overflow = 0, Error = 0
         17 A = 01000011011100000000000000000000, B = 11000010111100000000000000000000, Sel = 11, Y = 00000000000000000000000000000000, Overflow = 0, Error = 0
         18 A = 01000011011100000000000000000000, B = 11000010111100000000000000000000, Sel = 11, Y = 00000000000000000000000000000000, Overflow = 0, Error = 0
         19 A = 01000011011100000000000000000000, B = 11000010111100000000000000000000, Sel = 11, Y = 11000000000000000000000000000000, Overflow = 0, Error = 0
         20 A = 01000000000000001000000000000000, B = 01000000100000001000000000000000, Sel = 00, Y = 11000000000000000000000000000000, Overflow = 0, Error = 0
         21 A = 01000000000000001000000000000000, B = 01000000100000001000000000000000, Sel = 00, Y = 00000000000000000000000000000000, Overflow = 0, Error = 0
         22 A = 01000000000000001000000000000000, B = 01000000100000001000000000000000, Sel = 00, Y = 00000000000000000000000000000000, Overflow = 0, Error = 0
         23 A = 01000000000000001000000000000000, B = 01000000100000001000000000000000, Sel = 00, Y = 01000000110000010000000000000000, Overflow = 0, Error = 0
         24 A = 01000000000000001000000000000000, B = 01000000100000001000000000000000, Sel = 00, Y = 00000000000000000000000000000000, Overflow = 0, Error = 0
         25 A = 01000000000000001000000000000000, B = 01000000100000001000000000000000, Sel = 00, Y = 00000000000000000000000000000000, Overflow = 0, Error = 0
         26 A = 01000000000000001000000000000000, B = 01000000100000001000000000000000, Sel = 00, Y = 01000000110000001000000000000000, Overflow = 0, Error = 0
         27 A = 01111111000000010000000000000000, B = 01111111000000010000000000000000, Sel = 00, Y = 01000000110000001000000000000000, Overflow = 0, Error = 0
         28 A = 01111111000000010000000000000000, B = 01111111000000010000000000000000, Sel = 00, Y = 00000000000000000000000000000000, Overflow = 0, Error = 0
         29 A = 01111111000000010000000000000000, B = 01111111000000010000000000000000, Sel = 00, Y = 00000000000000000000000000000000, Overflow = 1, Error = 0
         30 A = 01111111000000010000000000000000, B = 01111111000000010000000000000000, Sel = 00, Y = 01111111100000000000000000000000, Overflow = 1, Error = 0
         31 A = 01111111010000010000000000000000, B = 11100000011100000000000000000000, Sel = 10, Y = 01111111100000000000000000000000, Overflow = 1, Error = 0
         32 A = 01111111010000010000000000000000, B = 11100000011100000000000000000000, Sel = 10, Y = 00000000000000000000000000000000, Overflow = 1, Error = 0
         33 A = 01111111010000010000000000000000, B = 11100000011100000000000000000000, Sel = 10, Y = 00000000000000000000000000000000, Overflow = 0, Error = 0
         34 A = 01111111010000010000000000000000, B = 11100000011100000000000000000000, Sel = 10, Y = 00000000000000000000000000000000, Overflow = 1, Error = 0
         35 A = 01111111010000010000000000000000, B = 11100000011100000000000000000000, Sel = 10, Y = 11111111100000000000000000000000, Overflow = 1, Error = 0
         36 A = 01111111000000010000000000000000, B = 01111111000000010000000000000000, Sel = 01, Y = 11111111100000000000000000000000, Overflow = 1, Error = 0
         37 A = 01111111000000010000000000000000, B = 01111111000000010000000000000000, Sel = 01, Y = 00000000000000000000000000000000, Overflow = 1, Error = 0
         38 A = 01111111000000010000000000000000, B = 01111111000000010000000000000000, Sel = 01, Y = 00000000000000000000000000000000, Overflow = 0, Error = 0
         39 A = 01111111000000010000000000000000, B = 01111111000000010000000000000000, Sel = 01, Y = 00000000000000000000000000000000, Overflow = 0, Error = 0
         40 A = 01111111000000010000000000000000, B = 01111111000000010000000000000000, Sel = 01, Y = 00000000000000000000000000000000, Overflow = 0, Error = 0
         41 A = 00000000000000010000000000000000, B = 11111111000000010000000000000000, Sel = 11, Y = 00000000000000000000000000000000, Overflow = 0, Error = 0
         42 A = 00000000000000010000000000000000, B = 11111111000000010000000000000000, Sel = 11, Y = 00000000000000000000000000000000, Overflow = 0, Error = 0
         43 A = 00000000000000010000000000000000, B = 11111111000000010000000000000000, Sel = 11, Y = 00000000000000000000000000000000, Overflow = 0, Error = 0
         44 A = 00000000000000010000000000000000, B = 11111111000000010000000000000000, Sel = 11, Y = 10000000000000000000000000000000, Overflow = 0, Error = 0
         45 A = 01111111100000000000000000000000, B = 11111111100000000000000000000000, Sel = 00, Y = 10000000000000000000000000000000, Overflow = 0, Error = 0
         46 A = 01111111100000000000000000000000, B = 11111111100000000000000000000000, Sel = 00, Y = 00000000000000000000000000000000, Overflow = 0, Error = 0
         47 A = 01111111100000000000000000000000, B = 11111111100000000000000000000000, Sel = 00, Y = 00000000000000000000000000000000, Overflow = 0, Error = 1
         48 A = 01111111100000000000000000000000, B = 11111111100000000000000000000000, Sel = 00, Y = 01111111110000000000000000000000, Overflow = 0, Error = 1
         49 A = 00000000000000000000000000000000, B = 01111111100000000000000000000000, Sel = 10, Y = 01111111110000000000000000000000, Overflow = 0, Error = 1
         50 A = 00000000000000000000000000000000, B = 01111111100000000000000000000000, Sel = 10, Y = 00000000000000000000000000000000, Overflow = 0, Error = 1
         51 A = 00000000000000000000000000000000, B = 01111111100000000000000000000000, Sel = 10, Y = 00000000000000000000000000000000, Overflow = 0, Error = 0
         52 A = 00000000000000000000000000000000, B = 01111111100000000000000000000000, Sel = 10, Y = 00000000000000000000000000000000, Overflow = 0, Error = 1
         53 A = 00000000000000000000000000000000, B = 01111111100000000000000000000000, Sel = 10, Y = 01111111110000000000000000000000, Overflow = 0, Error = 1
         54 A = 00000000000000000000000000000000, B = 00000000000000000000000000000000, Sel = 11, Y = 01111111110000000000000000000000, Overflow = 0, Error = 1
         55 A = 00000000000000000000000000000000, B = 00000000000000000000000000000000, Sel = 11, Y = 00000000000000000000000000000000, Overflow = 0, Error = 1
         56 A = 00000000000000000000000000000000, B = 00000000000000000000000000000000, Sel = 11, Y = 00000000000000000000000000000000, Overflow = 0, Error = 0
         57 A = 00000000000000000000000000000000, B = 00000000000000000000000000000000, Sel = 11, Y = 00000000000000000000000000000000, Overflow = 0, Error = 1
         58 A = 00000000000000000000000000000000, B = 00000000000000000000000000000000, Sel = 11, Y = 01111111110000000000000000000000, Overflow = 0, Error = 1
         59 A = 01000011000000010000000000000000, B = 01000010111100000000000000000000, Sel = 00, Y = 01111111110000000000000000000000, Overflow = 0, Error = 1
         60 A = 01000011000000010000000000000000, B = 01000010111100000000000000000000, Sel = 00, Y = 00000000000000000000000000000000, Overflow = 0, Error = 1
         61 A = 01000011000000010000000000000000, B = 01000010111100000000000000000000, Sel = 00, Y = 00000000000000000000000000000000, Overflow = 0, Error = 0
         62 A = 01000011000000010000000000000000, B = 01000010111100000000000000000000, Sel = 00, Y = 00000000000000000000000000000000, Overflow = 0, Error = 0
         63 A = 01000011000000010000000000000000, B = 01000010111100000000000000000000, Sel = 00, Y = 01000011011110010000000000000000, Overflow = 0, Error = 0
         64 A = 01000010111111100000000000000000, B = 11000000010000000000000000000000, Sel = 00, Y = 01000011011110010000000000000000, Overflow = 0, Error = 0
         65 A = 01000010111111100000000000000000, B = 11000000010000000000000000000000, Sel = 00, Y = 00000000000000000000000000000000, Overflow = 0, Error = 0
         66 A = 01000010111111100000000000000000, B = 11000000010000000000000000000000, Sel = 00, Y = 00000000000000000000000000000000, Overflow = 0, Error = 0
         67 A = 01000010111111100000000000000000, B = 11000000010000000000000000000000, Sel = 00, Y = 01000010111110000000000000000000, Overflow = 0, Error = 0
         68 A = 11000010100000000000000000000000, B = 01000010111111100000000000000000, Sel = 00, Y = 01000010111110000000000000000000, Overflow = 0, Error = 0
         69 A = 11000010100000000000000000000000, B = 01000010111111100000000000000000, Sel = 00, Y = 00000000000000000000000000000000, Overflow = 0, Error = 0
         70 A = 11000010100000000000000000000000, B = 01000010111111100000000000000000, Sel = 00, Y = 00000000000000000000000000000000, Overflow = 0, Error = 0
         71 A = 11000010100000000000000000000000, B = 01000010111111100000000000000000, Sel = 00, Y = 01000010011111000000000000000000, Overflow = 0, Error = 0
         72 A = 01000010111111100000000000000000, B = 11000010000000000000000000000000, Sel = 00, Y = 01000010011111000000000000000000, Overflow = 0, Error = 0
         73 A = 01000010111111100000000000000000, B = 11000010000000000000000000000000, Sel = 00, Y = 00000000000000000000000000000000, Overflow = 0, Error = 0
         74 A = 01000010111111100000000000000000, B = 11000010000000000000000000000000, Sel = 00, Y = 00000000000000000000000000000000, Overflow = 0, Error = 0
         75 A = 01000010111111100000000000000000, B = 11000010000000000000000000000000, Sel = 00, Y = 01000010101111100000000000000000, Overflow = 0, Error = 0
         76 A = 11000010111111100000000000000000, B = 01000001111100000000000000000000, Sel = 00, Y = 01000010101111100000000000000000, Overflow = 0, Error = 0
         77 A = 11000010111111100000000000000000, B = 01000001111100000000000000000000, Sel = 00, Y = 00000000000000000000000000000000, Overflow = 0, Error = 0
         78 A = 11000010111111100000000000000000, B = 01000001111100000000000000000000, Sel = 00, Y = 00000000000000000000000000000000, Overflow = 0, Error = 0
         79 A = 11000010111111100000000000000000, B = 01000001111100000000000000000000, Sel = 00, Y = 11000010110000100000000000000000, Overflow = 0, Error = 0
         80 A = 01000001100000000000000000000000, B = 11000001110110000000000000000000, Sel = 00, Y = 11000010110000100000000000000000, Overflow = 0, Error = 0
         81 A = 01000001100000000000000000000000, B = 11000001110110000000000000000000, Sel = 00, Y = 00000000000000000000000000000000, Overflow = 0, Error = 0
         82 A = 01000001100000000000000000000000, B = 11000001110110000000000000000000, Sel = 00, Y = 00000000000000000000000000000000, Overflow = 0, Error = 0
         83 A = 01000001100000000000000000000000, B = 11000001110110000000000000000000, Sel = 00, Y = 11000001001100000000000000000000, Overflow = 0, Error = 0
         84 A = 11000011000000010000000000000000, B = 11000010111100000000000000000000, Sel = 00, Y = 11000001001100000000000000000000, Overflow = 0, Error = 0
         85 A = 11000011000000010000000000000000, B = 11000010111100000000000000000000, Sel = 00, Y = 00000000000000000000000000000000, Overflow = 0, Error = 0
         86 A = 11000011000000010000000000000000, B = 11000010111100000000000000000000, Sel = 00, Y = 00000000000000000000000000000000, Overflow = 0, Error = 0
         87 A = 11000011000000010000000000000000, B = 11000010111100000000000000000000, Sel = 00, Y = 11000011011110010000000000000000, Overflow = 0, Error = 0
         88 A = 11000011000000010000000000000000, B = 11000011000100000000000000000000, Sel = 00, Y = 11000011011110010000000000000000, Overflow = 0, Error = 0
         89 A = 11000011000000010000000000000000, B = 11000011000100000000000000000000, Sel = 00, Y = 00000000000000000000000000000000, Overflow = 0, Error = 0
         90 A = 11000011000000010000000000000000, B = 11000011000100000000000000000000, Sel = 00, Y = 00000000000000000000000000000000, Overflow = 0, Error = 0
         91 A = 11000011000000010000000000000000, B = 11000011000100000000000000000000, Sel = 00, Y = 11000011100010001000000000000000, Overflow = 0, Error = 0
         92 A = 11000001011000000000000000000000, B = 11000010111111100000000000000000, Sel = 00, Y = 11000011100010001000000000000000, Overflow = 0, Error = 0
         93 A = 11000001011000000000000000000000, B = 11000010111111100000000000000000, Sel = 00, Y = 00000000000000000000000000000000, Overflow = 0, Error = 0
         94 A = 11000001011000000000000000000000, B = 11000010111111100000000000000000, Sel = 00, Y = 00000000000000000000000000000000, Overflow = 0, Error = 0
         95 A = 11000001011000000000000000000000, B = 11000010111111100000000000000000, Sel = 00, Y = 11000011000011010000000000000000, Overflow = 0, Error = 0
         96 A = 11000001111110000000000000000000, B = 11000000000000000000000000000000, Sel = 00, Y = 11000011000011010000000000000000, Overflow = 0, Error = 0
         97 A = 11000001111110000000000000000000, B = 11000000000000000000000000000000, Sel = 00, Y = 00000000000000000000000000000000, Overflow = 0, Error = 0
         98 A = 11000001111110000000000000000000, B = 11000000000000000000000000000000, Sel = 00, Y = 00000000000000000000000000000000, Overflow = 0, Error = 0
         99 A = 11000001111110000000000000000000, B = 11000000000000000000000000000000, Sel = 00, Y = 11000010000001000000000000000000, Overflow = 0, Error = 0
        100 A = 01000011000000010000000000000000, B = 01000010111100000000000000000000, Sel = 01, Y = 11000010000001000000000000000000, Overflow = 0, Error = 0
        101 A = 01000011000000010000000000000000, B = 01000010111100000000000000000000, Sel = 01, Y = 00000000000000000000000000000000, Overflow = 0, Error = 0
        102 A = 01000011000000010000000000000000, B = 01000010111100000000000000000000, Sel = 01, Y = 00000000000000000000000000000000, Overflow = 0, Error = 0
        103 A = 01000011000000010000000000000000, B = 01000010111100000000000000000000, Sel = 01, Y = 01000001000100000000000000000000, Overflow = 0, Error = 0
        104 A = 01000011000000010000000000000000, B = 01000011000000000000010000000000, Sel = 01, Y = 01000001000100000000000000000000, Overflow = 0, Error = 0
        105 A = 01000011000000010000000000000000, B = 01000011000000000000010000000000, Sel = 01, Y = 00000000000000000000000000000000, Overflow = 0, Error = 0
        106 A = 01000011000000010000000000000000, B = 01000011000000000000010000000000, Sel = 01, Y = 00000000000000000000000000000000, Overflow = 0, Error = 0
        107 A = 01000011000000010000000000000000, B = 01000011000000000000010000000000, Sel = 01, Y = 00111111011111001000000000000000, Overflow = 0, Error = 0
        108 A = 01000001011000000000000000000000, B = 01000010111111100000000000000000, Sel = 01, Y = 00111111011111001000000000000000, Overflow = 0, Error = 0
        109 A = 01000001011000000000000000000000, B = 01000010111111100000000000000000, Sel = 01, Y = 00000000000000000000000000000000, Overflow = 0, Error = 0
        110 A = 01000001011000000000000000000000, B = 01000010111111100000000000000000, Sel = 01, Y = 00000000000000000000000000000000, Overflow = 0, Error = 0
        111 A = 01000001011000000000000000000000, B = 01000010111111100000000000000000, Sel = 01, Y = 11000010111000100000000000000000, Overflow = 0, Error = 0
        112 A = 01000001111110000000000000000000, B = 01000000000000000000000000000000, Sel = 01, Y = 11000010111000100000000000000000, Overflow = 0, Error = 0
        113 A = 01000001111110000000000000000000, B = 01000000000000000000000000000000, Sel = 01, Y = 00000000000000000000000000000000, Overflow = 0, Error = 0
        114 A = 01000001111110000000000000000000, B = 01000000000000000000000000000000, Sel = 01, Y = 00000000000000000000000000000000, Overflow = 0, Error = 0
        115 A = 01000001111110000000000000000000, B = 01000000000000000000000000000000, Sel = 01, Y = 01000001111010000000000000000000, Overflow = 0, Error = 0
        116 A = 01000010111111100000000000000000, B = 11000000010000000000000000000000, Sel = 01, Y = 01000001111010000000000000000000, Overflow = 0, Error = 0
        117 A = 01000010111111100000000000000000, B = 11000000010000000000000000000000, Sel = 01, Y = 00000000000000000000000000000000, Overflow = 0, Error = 0
        118 A = 01000010111111100000000000000000, B = 11000000010000000000000000000000, Sel = 01, Y = 00000000000000000000000000000000, Overflow = 0, Error = 0
        119 A = 01000010111111100000000000000000, B = 11000000010000000000000000000000, Sel = 01, Y = 01000011000000100000000000000000, Overflow = 0, Error = 0
        120 A = 11000010100000000000000000000000, B = 01000010111111100000000000000000, Sel = 01, Y = 01000011000000100000000000000000, Overflow = 0, Error = 0
        121 A = 11000010100000000000000000000000, B = 01000010111111100000000000000000, Sel = 01, Y = 00000000000000000000000000000000, Overflow = 0, Error = 0
        122 A = 11000010100000000000000000000000, B = 01000010111111100000000000000000, Sel = 01, Y = 00000000000000000000000000000000, Overflow = 0, Error = 0
        123 A = 11000010100000000000000000000000, B = 01000010111111100000000000000000, Sel = 01, Y = 11000011001111110000000000000000, Overflow = 0, Error = 0
        124 A = 01000010111111100000000000000000, B = 11000010000000000000000000000000, Sel = 01, Y = 11000011001111110000000000000000, Overflow = 0, Error = 0
        125 A = 01000010111111100000000000000000, B = 11000010000000000000000000000000, Sel = 01, Y = 00000000000000000000000000000000, Overflow = 0, Error = 0
        126 A = 01000010111111100000000000000000, B = 11000010000000000000000000000000, Sel = 01, Y = 00000000000000000000000000000000, Overflow = 0, Error = 0
        127 A = 01000010111111100000000000000000, B = 11000010000000000000000000000000, Sel = 01, Y = 01000011000111110000000000000000, Overflow = 0, Error = 0
        128 A = 11000010111111100000000000000000, B = 01000001111100000000000000000000, Sel = 01, Y = 01000011000111110000000000000000, Overflow = 0, Error = 0
        129 A = 11000010111111100000000000000000, B = 01000001111100000000000000000000, Sel = 01, Y = 00000000000000000000000000000000, Overflow = 0, Error = 0
        130 A = 11000010111111100000000000000000, B = 01000001111100000000000000000000, Sel = 01, Y = 00000000000000000000000000000000, Overflow = 0, Error = 0
        131 A = 11000010111111100000000000000000, B = 01000001111100000000000000000000, Sel = 01, Y = 11000011000111010000000000000000, Overflow = 0, Error = 0
        132 A = 01000001100000000000000000000000, B = 11000001110110000000000000000000, Sel = 01, Y = 11000011000111010000000000000000, Overflow = 0, Error = 0
        133 A = 01000001100000000000000000000000, B = 11000001110110000000000000000000, Sel = 01, Y = 00000000000000000000000000000000, Overflow = 0, Error = 0
        134 A = 01000001100000000000000000000000, B = 11000001110110000000000000000000, Sel = 01, Y = 00000000000000000000000000000000, Overflow = 0, Error = 0
        135 A = 01000001100000000000000000000000, B = 11000001110110000000000000000000, Sel = 01, Y = 01000010001011000000000000000000, Overflow = 0, Error = 0
        136 A = 11000011000000010000000000000000, B = 11000010111100000000000000000000, Sel = 01, Y = 01000010001011000000000000000000, Overflow = 0, Error = 0
        137 A = 11000011000000010000000000000000, B = 11000010111100000000000000000000, Sel = 01, Y = 00000000000000000000000000000000, Overflow = 0, Error = 0
        138 A = 11000011000000010000000000000000, B = 11000010111100000000000000000000, Sel = 01, Y = 00000000000000000000000000000000, Overflow = 0, Error = 0
        139 A = 11000011000000010000000000000000, B = 11000010111100000000000000000000, Sel = 01, Y = 11000001000100000000000000000000, Overflow = 0, Error = 0
        140 A = 11000011000000010000000000000000, B = 11000011000100000000000000000000, Sel = 01, Y = 11000001000100000000000000000000, Overflow = 0, Error = 0
        141 A = 11000011000000010000000000000000, B = 11000011000100000000000000000000, Sel = 01, Y = 00000000000000000000000000000000, Overflow = 0, Error = 0
        142 A = 11000011000000010000000000000000, B = 11000011000100000000000000000000, Sel = 01, Y = 00000000000000000000000000000000, Overflow = 0, Error = 0
        143 A = 11000011000000010000000000000000, B = 11000011000100000000000000000000, Sel = 01, Y = 01000001011100000000000000000000, Overflow = 0, Error = 0
        144 A = 11000001011000000000000000000000, B = 11000010111111100000000000000000, Sel = 01, Y = 01000001011100000000000000000000, Overflow = 0, Error = 0
        145 A = 11000001011000000000000000000000, B = 11000010111111100000000000000000, Sel = 01, Y = 00000000000000000000000000000000, Overflow = 0, Error = 0
        146 A = 11000001011000000000000000000000, B = 11000010111111100000000000000000, Sel = 01, Y = 00000000000000000000000000000000, Overflow = 0, Error = 0
        147 A = 11000001011000000000000000000000, B = 11000010111111100000000000000000, Sel = 01, Y = 01000010111000100000000000000000, Overflow = 0, Error = 0
        148 A = 11000001111110000000000000000000, B = 11000000000000000000000000000000, Sel = 01, Y = 01000010111000100000000000000000, Overflow = 0, Error = 0
        149 A = 11000001111110000000000000000000, B = 11000000000000000000000000000000, Sel = 01, Y = 00000000000000000000000000000000, Overflow = 0, Error = 0
        150 A = 11000001111110000000000000000000, B = 11000000000000000000000000000000, Sel = 01, Y = 00000000000000000000000000000000, Overflow = 0, Error = 0
        151 A = 11000001111110000000000000000000, B = 11000000000000000000000000000000, Sel = 01, Y = 11000001111010000000000000000000, Overflow = 0, Error = 0
        152 A = 01000010010011000000000000000000, B = 01000001110110000000000000000000, Sel = 10, Y = 11000001111010000000000000000000, Overflow = 0, Error = 0
        153 A = 01000010010011000000000000000000, B = 01000001110110000000000000000000, Sel = 10, Y = 00000000000000000000000000000000, Overflow = 0, Error = 0
        154 A = 01000010010011000000000000000000, B = 01000001110110000000000000000000, Sel = 10, Y = 00000000000000000000000000000000, Overflow = 0, Error = 0
        155 A = 01000010010011000000000000000000, B = 01000001110110000000000000000000, Sel = 10, Y = 01000100101011000000000000000000, Overflow = 0, Error = 0
        156 A = 01000010111100000000000000000000, B = 01000000010000000000000000000000, Sel = 10, Y = 01000100101011000000000000000000, Overflow = 0, Error = 0
        157 A = 01000010111100000000000000000000, B = 01000000010000000000000000000000, Sel = 10, Y = 00000000000000000000000000000000, Overflow = 0, Error = 0
        158 A = 01000010111100000000000000000000, B = 01000000010000000000000000000000, Sel = 10, Y = 00000000000000000000000000000000, Overflow = 0, Error = 0
        159 A = 01000010111100000000000000000000, B = 01000000010000000000000000000000, Sel = 10, Y = 01000011101101000000000000000000, Overflow = 0, Error = 0
        160 A = 00111111100000000000000000000000, B = 01000001101100000000000000000000, Sel = 10, Y = 01000011101101000000000000000000, Overflow = 0, Error = 0
        161 A = 00111111100000000000000000000000, B = 01000001101100000000000000000000, Sel = 10, Y = 00000000000000000000000000000000, Overflow = 0, Error = 0
        162 A = 00111111100000000000000000000000, B = 01000001101100000000000000000000, Sel = 10, Y = 00000000000000000000000000000000, Overflow = 0, Error = 0
        163 A = 00111111100000000000000000000000, B = 01000001101100000000000000000000, Sel = 10, Y = 01000001101100000000000000000000, Overflow = 0, Error = 0
        164 A = 11000010010011000000000000000000, B = 01000001110110000000000000000000, Sel = 10, Y = 01000001101100000000000000000000, Overflow = 0, Error = 0
        165 A = 11000010010011000000000000000000, B = 01000001110110000000000000000000, Sel = 10, Y = 00000000000000000000000000000000, Overflow = 0, Error = 0
        166 A = 11000010010011000000000000000000, B = 01000001110110000000000000000000, Sel = 10, Y = 00000000000000000000000000000000, Overflow = 0, Error = 0
        167 A = 11000010010011000000000000000000, B = 01000001110110000000000000000000, Sel = 10, Y = 11000100101011000000000000000000, Overflow = 0, Error = 0
        168 A = 01000010111100000000000000000000, B = 11000000010000000000000000000000, Sel = 10, Y = 11000100101011000000000000000000, Overflow = 0, Error = 0
        169 A = 01000010111100000000000000000000, B = 11000000010000000000000000000000, Sel = 10, Y = 00000000000000000000000000000000, Overflow = 0, Error = 0
        170 A = 01000010111100000000000000000000, B = 11000000010000000000000000000000, Sel = 10, Y = 00000000000000000000000000000000, Overflow = 0, Error = 0
        171 A = 01000010111100000000000000000000, B = 11000000010000000000000000000000, Sel = 10, Y = 11000011101101000000000000000000, Overflow = 0, Error = 0
        172 A = 00111111100000000000000000000000, B = 11000001101100000000000000000000, Sel = 10, Y = 11000011101101000000000000000000, Overflow = 0, Error = 0
        173 A = 00111111100000000000000000000000, B = 11000001101100000000000000000000, Sel = 10, Y = 00000000000000000000000000000000, Overflow = 0, Error = 0
        174 A = 00111111100000000000000000000000, B = 11000001101100000000000000000000, Sel = 10, Y = 00000000000000000000000000000000, Overflow = 0, Error = 0
        175 A = 00111111100000000000000000000000, B = 11000001101100000000000000000000, Sel = 10, Y = 11000001101100000000000000000000, Overflow = 0, Error = 0
        176 A = 11000010010011000000000000000000, B = 11000001110110000000000000000000, Sel = 10, Y = 11000001101100000000000000000000, Overflow = 0, Error = 0
        177 A = 11000010010011000000000000000000, B = 11000001110110000000000000000000, Sel = 10, Y = 00000000000000000000000000000000, Overflow = 0, Error = 0
        178 A = 11000010010011000000000000000000, B = 11000001110110000000000000000000, Sel = 10, Y = 00000000000000000000000000000000, Overflow = 0, Error = 0
        179 A = 11000010010011000000000000000000, B = 11000001110110000000000000000000, Sel = 10, Y = 01000100101011000000000000000000, Overflow = 0, Error = 0
        180 A = 11000010111100000000000000000000, B = 11000000010000000000000000000000, Sel = 10, Y = 01000100101011000000000000000000, Overflow = 0, Error = 0
        181 A = 11000010111100000000000000000000, B = 11000000010000000000000000000000, Sel = 10, Y = 00000000000000000000000000000000, Overflow = 0, Error = 0
        182 A = 11000010111100000000000000000000, B = 11000000010000000000000000000000, Sel = 10, Y = 00000000000000000000000000000000, Overflow = 0, Error = 0
        183 A = 11000010111100000000000000000000, B = 11000000010000000000000000000000, Sel = 10, Y = 01000011101101000000000000000000, Overflow = 0, Error = 0
        184 A = 10111111100000000000000000000000, B = 11000001101100000000000000000000, Sel = 10, Y = 01000011101101000000000000000000, Overflow = 0, Error = 0
        185 A = 10111111100000000000000000000000, B = 11000001101100000000000000000000, Sel = 10, Y = 00000000000000000000000000000000, Overflow = 0, Error = 0
        186 A = 10111111100000000000000000000000, B = 11000001101100000000000000000000, Sel = 10, Y = 00000000000000000000000000000000, Overflow = 0, Error = 0
        187 A = 10111111100000000000000000000000, B = 11000001101100000000000000000000, Sel = 10, Y = 01000001101100000000000000000000, Overflow = 0, Error = 0
        188 A = 01000001100010000000000000000000, B = 01000000010000000000000000000000, Sel = 11, Y = 01000001101100000000000000000000, Overflow = 0, Error = 0
        189 A = 01000001100010000000000000000000, B = 01000000010000000000000000000000, Sel = 11, Y = 00000000000000000000000000000000, Overflow = 0, Error = 0
        190 A = 01000001100010000000000000000000, B = 01000000010000000000000000000000, Sel = 11, Y = 00000000000000000000000000000000, Overflow = 0, Error = 0
        191 A = 01000001100010000000000000000000, B = 01000000010000000000000000000000, Sel = 11, Y = 01000000101101010000000000000000, Overflow = 0, Error = 0
        192 A = 01000011011100110000000000000000, B = 01000010010011000000000000000000, Sel = 11, Y = 01000000101101010000000000000000, Overflow = 0, Error = 0
        193 A = 01000011011100110000000000000000, B = 01000010010011000000000000000000, Sel = 11, Y = 00000000000000000000000000000000, Overflow = 0, Error = 0
        194 A = 01000011011100110000000000000000, B = 01000010010011000000000000000000, Sel = 11, Y = 00000000000000000000000000000000, Overflow = 0, Error = 0
        195 A = 01000011011100110000000000000000, B = 01000010010011000000000000000000, Sel = 11, Y = 01000000100110000000000000000000, Overflow = 0, Error = 0
        196 A = 01000010001011000000000000000000, B = 01000010111000000000000000000000, Sel = 11, Y = 01000000100110000000000000000000, Overflow = 0, Error = 0
        197 A = 01000010001011000000000000000000, B = 01000010111000000000000000000000, Sel = 11, Y = 00000000000000000000000000000000, Overflow = 0, Error = 0
        198 A = 01000010001011000000000000000000, B = 01000010111000000000000000000000, Sel = 11, Y = 00000000000000000000000000000000, Overflow = 0, Error = 0
        199 A = 01000010001011000000000000000000, B = 01000010111000000000000000000000, Sel = 11, Y = 00111110110001001000000000000000, Overflow = 0, Error = 0
        200 A = 01000000000000000000000000000000, B = 01000011001001100000000000000000, Sel = 11, Y = 00111110110001001000000000000000, Overflow = 0, Error = 0
        201 A = 01000000000000000000000000000000, B = 01000011001001100000000000000000, Sel = 11, Y = 00000000000000000000000000000000, Overflow = 0, Error = 0
        202 A = 01000000000000000000000000000000, B = 01000011001001100000000000000000, Sel = 11, Y = 00000000000000000000000000000000, Overflow = 0, Error = 0
        203 A = 01000000000000000000000000000000, B = 01000011001001100000000000000000, Sel = 11, Y = 00111100010001010000000000000000, Overflow = 0, Error = 0
        204 A = 11000001100010000000000000000000, B = 01000000010000000000000000000000, Sel = 11, Y = 00111100010001010000000000000000, Overflow = 0, Error = 0
        205 A = 11000001100010000000000000000000, B = 01000000010000000000000000000000, Sel = 11, Y = 00000000000000000000000000000000, Overflow = 0, Error = 0
        206 A = 11000001100010000000000000000000, B = 01000000010000000000000000000000, Sel = 11, Y = 00000000000000000000000000000000, Overflow = 0, Error = 0
        207 A = 11000001100010000000000000000000, B = 01000000010000000000000000000000, Sel = 11, Y = 11000000101101010000000000000000, Overflow = 0, Error = 0
        208 A = 11000011011100110000000000000000, B = 01000010010011000000000000000000, Sel = 11, Y = 11000000101101010000000000000000, Overflow = 0, Error = 0
        209 A = 11000011011100110000000000000000, B = 01000010010011000000000000000000, Sel = 11, Y = 00000000000000000000000000000000, Overflow = 0, Error = 0
        210 A = 11000011011100110000000000000000, B = 01000010010011000000000000000000, Sel = 11, Y = 00000000000000000000000000000000, Overflow = 0, Error = 0
        211 A = 11000011011100110000000000000000, B = 01000010010011000000000000000000, Sel = 11, Y = 11000000100110000000000000000000, Overflow = 0, Error = 0
