tb_FPU.vcd
$date
	Sun Jun 09 23:30:16 2024
$end
$version
	Icarus Verilog
$end
$timescale
	10ps
$end
$scope module Goldentest $end
$var wire 1 ! done $end
$var wire 32 " Y [31:0] $end
$var wire 1 # Underflow $end
$var wire 1 $ Overflow $end
$var wire 1 % Error $end
$var reg 32 & A [31:0] $end
$var reg 32 ' B [31:0] $end
$var reg 1 ( Clock $end
$var reg 1 ) Reset $end
$var reg 2 * Sel [1:0] $end
$var reg 1 + round $end
$var reg 1 , start $end
$var integer 32 - file [31:0] $end
$var integer 32 . i [31:0] $end
$scope module FPU $end
$var wire 32 / A [31:0] $end
$var wire 32 0 B [31:0] $end
$var wire 1 ( clk $end
$var wire 2 1 mode [1:0] $end
$var wire 1 ) reset $end
$var wire 1 + round_mode $end
$var wire 1 , start $end
$var wire 1 2 under_flow $end
$var wire 1 3 over_flow $end
$var wire 1 4 err $end
$var wire 1 5 done_fpu $end
$var wire 32 6 Y_fpu [31:0] $end
$var reg 32 7 A_fpu [31:0] $end
$var reg 32 8 B_fpu [31:0] $end
$var reg 32 9 Y [31:0] $end
$var reg 1 ! done $end
$var reg 1 % error $end
$var reg 2 : mode_fpu [1:0] $end
$var reg 1 $ overflow $end
$var reg 1 ; round_fpu $end
$var reg 1 # underflow $end
$scope module fpu $end
$var wire 32 < A [31:0] $end
$var wire 32 = B [31:0] $end
$var wire 1 ( clk $end
$var wire 2 > mode [1:0] $end
$var wire 1 ; round_mode $end
$var wire 1 , start $end
$var wire 5 ? shifted [4:0] $end
$var wire 23 @ normalized_value [22:0] $end
$var wire 1 A S2 $end
$var wire 1 B S1 $end
$var wire 23 C M2 [22:0] $end
$var wire 23 D M1 [22:0] $end
$var wire 8 E E2 [7:0] $end
$var wire 8 F E1 [7:0] $end
$var reg 9 G E [8:0] $end
$var reg 48 H M1M2 [47:0] $end
$var reg 25 I M1_t [24:0] $end
$var reg 25 J M2_t [24:0] $end
$var reg 25 K M_sum [24:0] $end
$var reg 1 L S $end
$var reg 32 M Y [31:0] $end
$var reg 24 N divider [23:0] $end
$var reg 48 O divisor [47:0] $end
$var reg 1 5 done $end
$var reg 1 4 error $end
$var reg 3 P next_state [2:0] $end
$var reg 1 3 overflow $end
$var reg 25 Q quotient [24:0] $end
$var reg 1 2 underflow $end
$scope module normalizer $end
$var wire 25 R initial_value [24:0] $end
$var wire 25 S value [24:0] $end
$var wire 5 T shifted [4:0] $end
$var wire 25 U shift_layer_4 [24:0] $end
$var wire 25 V shift_layer_3 [24:0] $end
$var wire 25 W shift_layer_2 [24:0] $end
$var wire 25 X shift_layer_1 [24:0] $end
$var wire 23 Y normalized_value [22:0] $end
$upscope $end
$upscope $end
$upscope $end
$upscope $end
$enddefinitions $end
#0
$dumpvars
bx Y
bx X
bx W
bx V
bx U
bx T
bx S
bx R
bx Q
bx P
bx O
bx N
bx M
xL
bx K
bx J
bx I
bx H
bx G
bx F
bx E
bx D
bx C
xB
xA
bx @
bx ?
bx >
bx =
bx <
x;
bx :
bx 9
bx 8
bx 7
bx 6
x5
x4
x3
x2
b0 1
b0 0
b0 /
b1 .
b10000000000000000000000000000011 -
0,
0+
b0 *
1)
0(
b0 '
b0 &
x%
x$
x#
bx "
x!
$end
#500
1(
#1000
0(
#1500
1(
#2000
b10 .
0A
b0 E
b0 C
0B
b0 F
b0 D
0!
b0 "
b0 9
0;
b0 :
b0 >
b0 8
b0 =
b0 7
b0 <
0)
0(
#2500
1(
#3000
0(
#3500
1(
#4000
1)
0(
#4500
b11 .
x!
bx "
bx 9
1(
#5000
b100 .
1,
b1000010111100000000000000000000 '
b1000010111100000000000000000000 0
b1000011011100000000000000000000 &
b1000011011100000000000000000000 /
0(
#5500
b101 .
b10000101 E
b11100000000000000000000 C
b10000110 F
b11100000000000000000000 D
0!
b1000010111100000000000000000000 8
b1000010111100000000000000000000 =
b1000011011100000000000000000000 7
b1000011011100000000000000000000 <
05
b0 P
02
03
04
1(
#6000
0,
0(
#6500
b110 .
0%
0#
0$
b1101000000000000000000 @
b1101000000000000000000 Y
b1011010000000000000000000 U
b1011010000000000000000000 V
b1011010000000000000000000 W
b1011010000000000000000000 X
b0 ?
b0 T
b1011010000000000000000000 R
b1011010000000000000000000 K
b1011010000000000000000000 S
0L
b10000110 G
b11110000000000000000000 J
b111100000000000000000000 I
b1 P
1(
#7000
0(
#7500
b10000111 G
b10 P
1(
#8000
0(
#8500
b11 P
b1000011101101000000000000000000 6
b1000011101101000000000000000000 M
1(
#9000
0(
#9500
b111 .
b1000011101101000000000000000000 "
b1000011101101000000000000000000 9
15
1(
#10000
0(
#10500
b1000 .
1!
1(
#11000
0(
#11500
1(
#12000
0(
#12500
1(
#13000
0(
#13500
1(
#14000
0(
#14500
1(
#15000
0(
#15500
1(
#16000
b1001 .
1,
b1 *
b1 1
b1000010101100000000000000000000 '
b1000010101100000000000000000000 0
b1000011010100000000000000000000 &
b1000011010100000000000000000000 /
0(
#16500
b1010 .
b1100000000000000000000 C
b10100000000000000000000 D
0!
b1 :
b1 >
b1000010101100000000000000000000 8
b1000010101100000000000000000000 =
b1000011010100000000000000000000 7
b1000011010100000000000000000000 <
05
b0 P
1(
#17000
0,
0(
#17500
b11100000000000000000000 @
b11100000000000000000000 Y
b1111000000000000000000000 U
b10 ?
b10 T
b11110000000000000000000 V
b11110000000000000000000 W
b11110000000000000000000 X
b11110000000000000000000 R
b11110000000000000000000 K
b11110000000000000000000 S
b10000110 G
b10110000000000000000000 J
b110100000000000000000000 I
b1 P
1(
#18000
0(
#18500
b10000101 G
b10 P
1(
#19000
0(
#19500
b11 P
b1000010111100000000000000000000 6
b1000010111100000000000000000000 M
1(
#20000
0(
#20500
b1011 .
b1000010111100000000000000000000 "
b1000010111100000000000000000000 9
15
1(
#21000
0(
#21500
b1100 .
1!
1(
#22000
0(
#22500
1(
#23000
0(
#23500
1(
#24000
0(
#24500
1(
#25000
0(
#25500
1(
#26000
0(
#26500
1(
#27000
b1101 .
1,
b10 *
b10 1
b11000010111100000000000000000000 '
b11000010111100000000000000000000 0
b11000011011100000000000000000000 &
b11000011011100000000000000000000 /
0(
#27500
b1110 .
1A
b11100000000000000000000 C
1B
b11100000000000000000000 D
0!
b10 :
b10 >
b11000010111100000000000000000000 8
b11000010111100000000000000000000 =
b11000011011100000000000000000000 7
b11000011011100000000000000000000 <
05
b0 P
1(
#28000
0,
0(
#28500
b111000010000000000000000000000000000000000000000 H
b10001100 G
b1 P
1(
#29000
0(
#29500
b10001101 G
b10 P
1(
#30000
0(
#30500
b11 P
b1000110111000010000000000000000 6
b1000110111000010000000000000000 M
1(
#31000
0(
#31500
b1111 .
b1000110111000010000000000000000 "
b1000110111000010000000000000000 9
15
1(
#32000
0(
#32500
b10000 .
1!
1(
#33000
0(
#33500
1(
#34000
0(
#34500
1(
#35000
0(
#35500
1(
#36000
0(
#36500
1(
#37000
0(
#37500
1(
#38000
b10001 .
1,
b11 *
b11 1
b1000011011100000000000000000000 &
b1000011011100000000000000000000 /
0(
#38500
b10010 .
0B
0!
b11 :
b11 >
b1000011011100000000000000000000 7
b1000011011100000000000000000000 <
05
b0 P
1(
#39000
0,
0(
#39500
b10000000 G
b111100000000000000000000 N
b111100000000000000000000000000000000000000000000 O
b1 P
1(
#40000
0(
#40500
b1000000000000000000000000 Q
b10 P
1(
#41000
0(
#41500
b11 P
b11000000000000000000000000000000 6
b11000000000000000000000000000000 M
1(
#42000
0(
#42500
b10011 .
b11000000000000000000000000000000 "
b11000000000000000000000000000000 9
15
1(
#43000
0(
#43500
b10100 .
1!
1(
#44000
0(
#44500
1(
#45000
0(
#45500
1(
#46000
0(
#46500
1(
#47000
0(
#47500
1(
#48000
0(
#48500
1(
#49000
b10101 .
1,
b0 *
b0 1
b1000000100000001000000000000000 '
b1000000100000001000000000000000 0
b1000000000000001000000000000000 &
b1000000000000001000000000000000 /
0(
#49500
b10110 .
0A
b10000001 E
b1000000000000000 C
b10000000 F
b1000000000000000 D
0!
b0 :
b0 >
b1000000100000001000000000000000 8
b1000000100000001000000000000000 =
b1000000000000001000000000000000 7
b1000000000000001000000000000000 <
05
b0 P
1(
#50000
0,
0(
#50500
b10000001100000000000000 @
b10000001100000000000000 Y
b110000001100000000000000 U
b1 ?
b1 T
b110000001100000000000000 V
b110000001100000000000000 W
b110000001100000000000000 X
b110000001100000000000000 R
b110000001100000000000000 K
b110000001100000000000000 S
b10000001 G
b100000001000000000000000 J
b10000000100000000000000 I
b1 P
1(
#51000
0(
#51500
b10 P
1(
#52000
0(
#52500
b11 P
b1000000110000010000000000000000 6
b1000000110000010000000000000000 M
1(
#53000
0(
#53500
b10111 .
b1000000110000010000000000000000 "
b1000000110000010000000000000000 9
15
1(
#54000
0(
#54500
b11000 .
1!
1(
#55000
0(
#55500
1(
#56000
0(
#56500
1(
#57000
0(
#57500
1(
#58000
0(
#58500
1(
#59000
0(
#59500
1(
#60000
1+
1,
0(
#60500
b11001 .
0!
1;
05
b0 P
1(
#61000
0,
0(
#61500
b10000000100000000000000 I
b1 P
1(
#62000
0(
#62500
b10 P
1(
#63000
0(
#63500
b11 P
b1000000110000001000000000000000 6
b1000000110000001000000000000000 M
1(
#64000
0(
#64500
b11010 .
b1000000110000001000000000000000 "
b1000000110000001000000000000000 9
15
1(
#65000
0(
#65500
b11011 .
1!
1(
#66000
0(
#66500
1(
#67000
0(
#67500
1(
#68000
0(
#68500
1(
#69000
0(
#69500
1(
#70000
0(
#70500
1(
#71000
b11100 .
0+
1,
b1111111000000010000000000000000 '
b1111111000000010000000000000000 0
b1111111000000010000000000000000 &
b1111111000000010000000000000000 /
0(
#71500
b11101 .
b11111110 E
b10000000000000000 C
b11111110 F
b10000000000000000 D
0!
0;
b1111111000000010000000000000000 8
b1111111000000010000000000000000 =
b1111111000000010000000000000000 7
b1111111000000010000000000000000 <
05
b0 P
1(
#72000
0,
0(
#72500
b10000000000000000 @
b10000000000000000 Y
b0 ?
b0 T
b1000000100000000000000000 U
b1000000100000000000000000 V
b1000000100000000000000000 W
b1000000100000000000000000 X
b1000000100000000000000000 R
b1000000100000000000000000 K
b1000000100000000000000000 S
b11111110 G
b100000010000000000000000 J
b100000010000000000000000 I
b1 P
1(
#73000
0(
#73500
b11111111 G
b10 P
1(
#74000
0(
#74500
b11 P
b1111111100000000000000000000000 6
b1111111100000000000000000000000 M
13
1(
#75000
0(
#75500
b11110 .
1$
b1111111100000000000000000000000 "
b1111111100000000000000000000000 9
15
1(
#76000
0(
#76500
b11111 .
1!
1(
#77000
0(
#77500
1(
#78000
0(
#78500
1(
#79000
0(
#79500
1(
#80000
0(
#80500
1(
#81000
0(
#81500
1(
#82000
b100000 .
1,
b10 *
b10 1
b11100000011100000000000000000000 '
b11100000011100000000000000000000 0
b1111111010000010000000000000000 &
b1111111010000010000000000000000 /
0(
#82500
b100001 .
1A
b11000000 E
b11100000000000000000000 C
b10000010000000000000000 D
0!
b10 :
b10 >
b11100000011100000000000000000000 8
b11100000011100000000000000000000 =
b1111111010000010000000000000000 7
b1111111010000010000000000000000 <
05
b0 P
03
1(
#83000
0,
0(
#83500
b100010 .
0$
b101101001111000000000000000000000000000000000000 H
b100111111 G
b1 P
1(
#84000
0(
#84500
b101000000 G
b10 P
1(
#85000
0(
#85500
b11 P
13
b11111111100000000000000000000000 6
b11111111100000000000000000000000 M
1(
#86000
0(
#86500
b100011 .
1$
b11111111100000000000000000000000 "
b11111111100000000000000000000000 9
15
1(
#87000
0(
#87500
b100100 .
1!
1(
#88000
0(
#88500
1(
#89000
0(
#89500
1(
#90000
0(
#90500
1(
#91000
0(
#91500
1(
#92000
0(
#92500
1(
#93000
b100101 .
1,
b1 *
b1 1
b1111111000000010000000000000000 '
b1111111000000010000000000000000 0
b1111111000000010000000000000000 &
b1111111000000010000000000000000 /
0(
#93500
b100110 .
0A
b11111110 E
b10000000000000000 C
b10000000000000000 D
0!
b1 :
b1 >
b1111111000000010000000000000000 8
b1111111000000010000000000000000 =
b1111111000000010000000000000000 7
b1111111000000010000000000000000 <
05
b0 P
03
1(
#94000
0,
0(
#94500
b100111 .
0$
b0 @
b0 Y
b0 U
b0 V
b0 W
b0 X
b11111 ?
b11111 T
1L
b0 R
b0 K
b0 S
b11111110 G
b1 P
1(
#95000
0(
#95500
b0 6
b0 M
b11 P
1(
#96000
0(
#96500
b101000 .
b0 "
b0 9
15
1(
#97000
0(
#97500
b101001 .
1!
1(
#98000
0(
#98500
1(
#99000
0(
#99500
1(
#100000
0(
#100500
1(
#101000
0(
#101500
1(
#102000
0(
#102500
1(
#103000
0(
#103500
1(
#104000
b101010 .
1,
b11 *
b11 1
b11111111000000010000000000000000 '
b11111111000000010000000000000000 0
b10000000000000000 &
b10000000000000000 /
0(
#104500
b101011 .
1A
b0 F
0!
b11 :
b11 >
b11111111000000010000000000000000 8
b11111111000000010000000000000000 =
b10000000000000000 7
b10000000000000000 <
05
b0 P
1(
#105000
0,
0(
#105500
b10000000000000000000000000000000 6
b10000000000000000000000000000000 M
b11 P
1(
#106000
0(
#106500
b101100 .
b10000000000000000000000000000000 "
b10000000000000000000000000000000 9
15
1(
#107000
0(
#107500
b101101 .
1!
1(
#108000
0(
#108500
1(
#109000
0(
#109500
1(
#110000
0(
#110500
1(
#111000
0(
#111500
1(
#112000
0(
#112500
1(
#113000
0(
#113500
1(
#114000
0(
#114500
1(
#115000
b101110 .
1,
b0 *
b0 1
b11111111100000000000000000000000 '
b11111111100000000000000000000000 0
b1111111100000000000000000000000 &
b1111111100000000000000000000000 /
0(
#115500
b101111 .
b11111111 E
b0 C
b11111111 F
b0 D
0!
b0 :
b0 >
b11111111100000000000000000000000 8
b11111111100000000000000000000000 =
b1111111100000000000000000000000 7
b1111111100000000000000000000000 <
05
b0 P
1(
#116000
0,
0(
#116500
14
b1111111110000000000000000000000 6
b1111111110000000000000000000000 M
b11 P
1(
#117000
0(
#117500
b110000 .
1%
b1111111110000000000000000000000 "
b1111111110000000000000000000000 9
15
1(
#118000
0(
#118500
b110001 .
1!
1(
#119000
0(
#119500
1(
#120000
0(
#120500
1(
#121000
0(
#121500
1(
#122000
0(
#122500
1(
#123000
0(
#123500
1(
#124000
0(
#124500
1(
#125000
0(
#125500
1(
#126000
b110010 .
1,
b10 *
b10 1
b1111111100000000000000000000000 '
b1111111100000000000000000000000 0
b0 &
b0 /
0(
#126500
b110011 .
0A
b0 F
0!
b10 :
b10 >
b1111111100000000000000000000000 8
b1111111100000000000000000000000 =
b0 7
b0 <
05
b0 P
04
1(
#127000
0,
0(
#127500
b110100 .
0%
14
b11 P
1(
#128000
0(
#128500
b110101 .
1%
15
1(
#129000
0(
#129500
b110110 .
1!
1(
#130000
0(
#130500
1(
#131000
0(
#131500
1(
#132000
0(
#132500
1(
#133000
0(
#133500
1(
#134000
0(
#134500
1(
#135000
0(
#135500
1(
#136000
0(
#136500
1(
#137000
b110111 .
1,
b11 *
b11 1
b0 '
b0 0
0(
#137500
b111000 .
b0 E
0!
b11 :
b11 >
b0 8
b0 =
05
b0 P
04
1(
#138000
0,
0(
#138500
b111001 .
0%
14
b11 P
1(
#139000
0(
#139500
b111010 .
1%
15
1(
#140000
0(
#140500
b111011 .
1!
1(
#141000
0(
#141500
1(
#142000
0(
#142500
1(
#143000
0(
#143500
1(
#144000
0(
#144500
1(
#145000
0(
#145500
1(
#146000
0(
#146500
1(
#147000
0(
#147500
1(
#148000
b111100 .
1,
b0 *
b0 1
b1000010111100000000000000000000 '
b1000010111100000000000000000000 0
b1000011000000010000000000000000 &
b1000011000000010000000000000000 /
0(
#148500
b111101 .
b10000101 E
b11100000000000000000000 C
b10000110 F
b10000000000000000 D
0!
b0 :
b0 >
b1000010111100000000000000000000 8
b1000010111100000000000000000000 =
b1000011000000010000000000000000 7
b1000011000000010000000000000000 <
05
b0 P
04
1(
#149000
0,
0(
#149500
b111110 .
0%
b11110010000000000000000 @
b11110010000000000000000 Y
b111110010000000000000000 U
b111110010000000000000000 V
b111110010000000000000000 W
b111110010000000000000000 X
b1 ?
b1 T
b111110010000000000000000 R
b111110010000000000000000 K
b111110010000000000000000 S
0L
b10000110 G
b11110000000000000000000 J
b1 P
1(
#150000
0(
#150500
b10 P
1(
#151000
0(
#151500
b11 P
b1000011011110010000000000000000 6
b1000011011110010000000000000000 M
1(
#152000
0(
#152500
b111111 .
b1000011011110010000000000000000 "
b1000011011110010000000000000000 9
15
1(
#153000
0(
#153500
b1000000 .
1!
1(
#154000
0(
#154500
1(
#155000
0(
#155500
1(
#156000
0(
#156500
1(
#157000
0(
#157500
1(
#158000
0(
#158500
1(
#159000
b1000001 .
1,
b11000000010000000000000000000000 '
b11000000010000000000000000000000 0
b1000010111111100000000000000000 &
b1000010111111100000000000000000 /
0(
#159500
b1000010 .
1A
b10000000 E
b10000000000000000000000 C
b10000101 F
b11111100000000000000000 D
0!
b11000000010000000000000000000000 8
b11000000010000000000000000000000 =
b1000010111111100000000000000000 7
b1000010111111100000000000000000 <
05
b0 P
1(
#160000
0,
0(
#160500
b11110000000000000000000 @
b11110000000000000000000 Y
b111110000000000000000000 U
b111110000000000000000000 V
b111110000000000000000000 W
b111110000000000000000000 X
b111110000000000000000000 R
b111110000000000000000000 K
b111110000000000000000000 S
b10000101 G
b1100000000000000000 J
b111111100000000000000000 I
b1 P
1(
#161000
0(
#161500
b10 P
1(
#162000
0(
#162500
b11 P
b1000010111110000000000000000000 6
b1000010111110000000000000000000 M
1(
#163000
0(
#163500
b1000011 .
b1000010111110000000000000000000 "
b1000010111110000000000000000000 9
15
1(
#164000
0(
#164500
b1000100 .
1!
1(
#165000
0(
#165500
1(
#166000
0(
#166500
1(
#167000
0(
#167500
1(
#168000
0(
#168500
1(
#169000
0(
#169500
1(
#170000
b1000101 .
1,
b1000010111111100000000000000000 '
b1000010111111100000000000000000 0
b11000010100000000000000000000000 &
b11000010100000000000000000000000 /
0(
#170500
b1000110 .
0A
b10000101 E
b11111100000000000000000 C
1B
b0 D
0!
b1000010111111100000000000000000 8
b1000010111111100000000000000000 =
b11000010100000000000000000000000 7
b11000010100000000000000000000000 <
05
b0 P
1(
#171000
0,
0(
#171500
b11111000000000000000000 @
b11111000000000000000000 Y
b1111110000000000000000000 U
b10 ?
b10 T
b11111100000000000000000 V
b11111100000000000000000 W
b11111100000000000000000 X
b11111100000000000000000 R
b11111100000000000000000 K
b11111100000000000000000 S
b111111100000000000000000 J
b100000000000000000000000 I
b1 P
1(
#172000
0(
#172500
b10000100 G
b10 P
1(
#173000
0(
#173500
b11 P
b1000010011111000000000000000000 6
b1000010011111000000000000000000 M
1(
#174000
0(
#174500
b1000111 .
b1000010011111000000000000000000 "
b1000010011111000000000000000000 9
15
1(
#175000
0(
#175500
b1001000 .
1!
1(
#176000
0(
#176500
1(
#177000
0(
#177500
1(
#178000
0(
#178500
1(
#179000
0(
#179500
1(
#180000
0(
#180500
1(
#181000
b1001001 .
1,
b11000010000000000000000000000000 '
b11000010000000000000000000000000 0
b1000010111111100000000000000000 &
b1000010111111100000000000000000 /
0(
#181500
b1001010 .
1A
b10000100 E
b0 C
0B
b11111100000000000000000 D
0!
b11000010000000000000000000000000 8
b11000010000000000000000000000000 =
b1000010111111100000000000000000 7
b1000010111111100000000000000000 <
05
b0 P
1(
#182000
0,
0(
#182500
b1111100000000000000000 @
b1111100000000000000000 Y
b101111100000000000000000 U
b1 ?
b1 T
b101111100000000000000000 V
b101111100000000000000000 W
b101111100000000000000000 X
b101111100000000000000000 R
b101111100000000000000000 K
b101111100000000000000000 S
b10000101 G
b10000000000000000000000 J
b111111100000000000000000 I
b1 P
1(
#183000
0(
#183500
b10 P
1(
#184000
0(
#184500
b11 P
b1000010101111100000000000000000 6
b1000010101111100000000000000000 M
1(
#185000
0(
#185500
b1001011 .
b1000010101111100000000000000000 "
b1000010101111100000000000000000 9
15
1(
#186000
0(
#186500
b1001100 .
1!
1(
#187000
0(
#187500
1(
#188000
0(
#188500
1(
#189000
0(
#189500
1(
#190000
0(
#190500
1(
#191000
0(
#191500
1(
#192000
b1001101 .
1,
b1000001111100000000000000000000 '
b1000001111100000000000000000000 0
b11000010111111100000000000000000 &
b11000010111111100000000000000000 /
0(
#192500
b1001110 .
0A
b10000011 E
b11100000000000000000000 C
1B
0!
b1000001111100000000000000000000 8
b1000001111100000000000000000000 =
b11000010111111100000000000000000 7
b11000010111111100000000000000000 <
05
b0 P
1(
#193000
0,
0(
#193500
b10000100000000000000000 @
b10000100000000000000000 Y
b110000100000000000000000 U
b110000100000000000000000 V
b110000100000000000000000 W
b110000100000000000000000 X
b110000100000000000000000 R
b110000100000000000000000 K
b110000100000000000000000 S
1L
b1111000000000000000000 J
b1 P
1(
#194000
0(
#194500
b10 P
1(
#195000
0(
#195500
b11 P
b11000010110000100000000000000000 6
b11000010110000100000000000000000 M
1(
#196000
0(
#196500
b1001111 .
b11000010110000100000000000000000 "
b11000010110000100000000000000000 9
15
1(
#197000
0(
#197500
b1010000 .
1!
1(
#198000
0(
#198500
1(
#199000
0(
#199500
1(
#200000
0(
#200500
1(
#201000
0(
#201500
1(
#202000
0(
#202500
1(
#203000
b1010001 .
1,
b11000001110110000000000000000000 '
b11000001110110000000000000000000 0
b1000001100000000000000000000000 &
b1000001100000000000000000000000 /
0(
#203500
b1010010 .
1A
b10110000000000000000000 C
0B
b10000011 F
b0 D
0!
b11000001110110000000000000000000 8
b11000001110110000000000000000000 =
b1000001100000000000000000000000 7
b1000001100000000000000000000000 <
05
b0 P
1(
#204000
0,
0(
#204500
b1100000000000000000000 @
b1100000000000000000000 Y
b1011000000000000000000000 U
b10 ?
b10 T
b10110000000000000000000 V
b10110000000000000000000 W
b10110000000000000000000 X
b10110000000000000000000 R
b10110000000000000000000 K
b10110000000000000000000 S
b10000011 G
b110110000000000000000000 J
b100000000000000000000000 I
b1 P
1(
#205000
0(
#205500
b10000010 G
b10 P
1(
#206000
0(
#206500
b11 P
b11000001001100000000000000000000 6
b11000001001100000000000000000000 M
1(
#207000
0(
#207500
b1010011 .
b11000001001100000000000000000000 "
b11000001001100000000000000000000 9
15
1(
#208000
0(
#208500
b1010100 .
1!
1(
#209000
0(
#209500
1(
#210000
0(
#210500
1(
#211000
0(
#211500
1(
#212000
0(
#212500
1(
#213000
0(
#213500
1(
#214000
b1010101 .
1+
1,
b11000010111100000000000000000000 '
b11000010111100000000000000000000 0
b11000011000000010000000000000000 &
b11000011000000010000000000000000 /
0(
#214500
b1010110 .
b10000101 E
b11100000000000000000000 C
1B
b10000110 F
b10000000000000000 D
0!
1;
b11000010111100000000000000000000 8
b11000010111100000000000000000000 =
b11000011000000010000000000000000 7
b11000011000000010000000000000000 <
05
b0 P
1(
#215000
0,
0(
#215500
b11110010000000000000000 @
b11110010000000000000000 Y
b111110010000000000000000 U
b1 ?
b1 T
b111110010000000000000000 V
b111110010000000000000000 W
b111110010000000000000000 X
b111110010000000000000000 R
b111110010000000000000000 K
b111110010000000000000000 S
b10000110 G
b11110000000000000000000 J
b100000010000000000000000 I
b1 P
1(
#216000
0(
#216500
b10 P
1(
#217000
0(
#217500
b11 P
b11000011011110010000000000000000 6
b11000011011110010000000000000000 M
1(
#218000
0(
#218500
b1010111 .
b11000011011110010000000000000000 "
b11000011011110010000000000000000 9
15
1(
#219000
0(
#219500
b1011000 .
1!
1(
#220000
0(
#220500
1(
#221000
0(
#221500
1(
#222000
0(
#222500
1(
#223000
0(
#223500
1(
#224000
0(
#224500
1(
#225000
b1011001 .
1,
b11000011000100000000000000000000 '
b11000011000100000000000000000000 0
0(
#225500
b1011010 .
b10000110 E
b100000000000000000000 C
0!
b11000011000100000000000000000000 8
b11000011000100000000000000000000 =
05
b0 P
1(
#226000
0,
0(
#226500
b10001000000000000000 @
b10001000000000000000 Y
b0 ?
b0 T
b1000100010000000000000000 U
b1000100010000000000000000 V
b1000100010000000000000000 W
b1000100010000000000000000 X
b1000100010000000000000000 R
b1000100010000000000000000 K
b1000100010000000000000000 S
b100100000000000000000000 J
b1 P
1(
#227000
0(
#227500
b10000111 G
b10 P
1(
#228000
0(
#228500
b11 P
b11000011100010001000000000000000 6
b11000011100010001000000000000000 M
1(
#229000
0(
#229500
b1011011 .
b11000011100010001000000000000000 "
b11000011100010001000000000000000 9
15
1(
#230000
0(
#230500
b1011100 .
1!
1(
#231000
0(
#231500
1(
#232000
0(
#232500
1(
#233000
0(
#233500
1(
#234000
0(
#234500
1(
#235000
0(
#235500
1(
#236000
b1011101 .
1,
b11000010111111100000000000000000 '
b11000010111111100000000000000000 0
b11000001011000000000000000000000 &
b11000001011000000000000000000000 /
0(
#236500
b1011110 .
b10000101 E
b11111100000000000000000 C
b10000010 F
b11000000000000000000000 D
0!
b11000010111111100000000000000000 8
b11000010111111100000000000000000 =
b11000001011000000000000000000000 7
b11000001011000000000000000000000 <
05
b0 P
1(
#237000
0,
0(
#237500
b11010000000000000000 @
b11010000000000000000 Y
b1000110100000000000000000 U
b1000110100000000000000000 V
b1000110100000000000000000 W
b1000110100000000000000000 X
b1000110100000000000000000 R
b1000110100000000000000000 K
b1000110100000000000000000 S
b10000101 G
b111111100000000000000000 J
b111000000000000000000 I
b1 P
1(
#238000
0(
#238500
b10000110 G
b10 P
1(
#239000
0(
#239500
b11 P
b11000011000011010000000000000000 6
b11000011000011010000000000000000 M
1(
#240000
0(
#240500
b1011111 .
b11000011000011010000000000000000 "
b11000011000011010000000000000000 9
15
1(
#241000
0(
#241500
b1100000 .
1!
1(
#242000
0(
#242500
1(
#243000
0(
#243500
1(
#244000
0(
#244500
1(
#245000
0(
#245500
1(
#246000
0(
#246500
1(
#247000
b1100001 .
1,
b11000000000000000000000000000000 '
b11000000000000000000000000000000 0
b11000001111110000000000000000000 &
b11000001111110000000000000000000 /
0(
#247500
b1100010 .
b10000000 E
b0 C
b10000011 F
b11110000000000000000000 D
0!
b11000000000000000000000000000000 8
b11000000000000000000000000000000 =
b11000001111110000000000000000000 7
b11000001111110000000000000000000 <
05
b0 P
1(
#248000
0,
0(
#248500
b1000000000000000000 @
b1000000000000000000 Y
b1000010000000000000000000 U
b1000010000000000000000000 V
b1000010000000000000000000 W
b1000010000000000000000000 X
b1000010000000000000000000 R
b1000010000000000000000000 K
b1000010000000000000000000 S
b10000011 G
b100000000000000000000 J
b111110000000000000000000 I
b1 P
1(
#249000
0(
#249500
b10000100 G
b10 P
1(
#250000
0(
#250500
b11 P
b11000010000001000000000000000000 6
b11000010000001000000000000000000 M
1(
#251000
0(
#251500
b1100011 .
b11000010000001000000000000000000 "
b11000010000001000000000000000000 9
15
1(
#252000
0(
#252500
b1100100 .
1!
1(
#253000
0(
#253500
1(
#254000
0(
#254500
1(
#255000
0(
#255500
1(
#256000
0(
#256500
1(
#257000
0(
#257500
1(
#258000
b1100101 .
0+
1,
b1 *
b1 1
b1000010111100000000000000000000 '
b1000010111100000000000000000000 0
b1000011000000010000000000000000 &
b1000011000000010000000000000000 /
0(
#258500
b1100110 .
0A
b10000101 E
b11100000000000000000000 C
0B
b10000110 F
b10000000000000000 D
0!
0;
b1 :
b1 >
b1000010111100000000000000000000 8
b1000010111100000000000000000000 =
b1000011000000010000000000000000 7
b1000011000000010000000000000000 <
05
b0 P
1(
#259000
0,
0(
#259500
b100000000000000000000 @
b100000000000000000000 Y
b100100000000000000000000 U
b100100000000000000000000 V
b101 ?
b101 T
b10010000000000000000 W
b10010000000000000000 X
b10010000000000000000 R
b10010000000000000000 K
b10010000000000000000 S
0L
b10000110 G
b11110000000000000000000 J
b100000010000000000000000 I
b1 P
1(
#260000
0(
#260500
b10000010 G
b10 P
1(
#261000
0(
#261500
b11 P
b1000001000100000000000000000000 6
b1000001000100000000000000000000 M
1(
#262000
0(
#262500
b1100111 .
b1000001000100000000000000000000 "
b1000001000100000000000000000000 9
15
1(
#263000
0(
#263500
b1101000 .
1!
1(
#264000
0(
#264500
1(
#265000
0(
#265500
1(
#266000
0(
#266500
1(
#267000
0(
#267500
1(
#268000
0(
#268500
1(
#269000
b1101001 .
1,
b1000011000000000000010000000000 '
b1000011000000000000010000000000 0
0(
#269500
b1101010 .
b10000110 E
b10000000000 C
0!
b1000011000000000000010000000000 8
b1000011000000000000010000000000 =
05
b0 P
1(
#270000
0,
0(
#270500
b11111000000000000000000 @
b11111000000000000000000 Y
b111111000000000000000000 U
b111111000000000000000000 V
b111111000000000000000000 W
b1001 ?
b1001 T
b1111110000000000 X
b1111110000000000 R
b1111110000000000 K
b1111110000000000 S
b10000110 G
b100000000000010000000000 J
b1 P
1(
#271000
0(
#271500
b1111110 G
b10 P
1(
#272000
0(
#272500
b11 P
b111111011111001000000000000000 6
b111111011111001000000000000000 M
1(
#273000
0(
#273500
b1101011 .
b111111011111001000000000000000 "
b111111011111001000000000000000 9
15
1(
#274000
0(
#274500
b1101100 .
1!
1(
#275000
0(
#275500
1(
#276000
0(
#276500
1(
#277000
0(
#277500
1(
#278000
0(
#278500
1(
#279000
0(
#279500
1(
#280000
b1101101 .
1,
b1000010111111100000000000000000 '
b1000010111111100000000000000000 0
b1000001011000000000000000000000 &
b1000001011000000000000000000000 /
0(
#280500
b1101110 .
b10000101 E
b11111100000000000000000 C
b10000010 F
b11000000000000000000000 D
0!
b1000010111111100000000000000000 8
b1000010111111100000000000000000 =
b1000001011000000000000000000000 7
b1000001011000000000000000000000 <
05
b0 P
1(
#281000
0,
0(
